Analysis of model fit, accuracy for LEISR rates
…
Analyze model fit

Here, we wish to get a sense of model fit across the 100 datasets, based on AICc.

First, we rank the 8 inferences per dataset by AICc and calculate dAICc from the minimum AICc per dataset:

model.fit %>% 
    group_by(dataset) %>%
    arrange(dataset, AICc) %>%
    mutate(AICc_rank = rank(AICc)) %>% 
    mutate(deltaAICc = min(AICc) - AICc) -> model.aicc
model.aicc

## # A tibble: 765 x 6
## # Groups:   dataset [100]
##    dataset   model        logl      AICc AICc_rank    deltaAICc
##     <fctr>  <fctr>       <dbl>     <dbl>     <dbl>        <dbl>
##  1  13PK_A   WAG-G   -95146.43  191496.0         1        0.000
##  2  13PK_A   JTT-G   -96311.45  193826.0         2    -2330.040
##  3  13PK_A    LG-G   -96450.58  194104.3         3    -2608.305
##  4  13PK_A  WAG-No  -102566.18  206333.5         4   -14837.496
##  5  13PK_A   LG-No  -104444.45  210090.0         5   -18594.044
##  6  13PK_A  JTT-No  -104843.16  210887.4         6   -19391.447
##  7  13PK_A JC69-No  -120388.71  241978.5         7   -50482.562
##  8  13PK_A  JC69-G -1108277.52 2217758.2         8 -2026262.185
##  9  1A16_A    LG-G  -127397.46  255998.9         1        0.000
## 10  1A16_A   LG-No  -136295.47  273792.9         2   -17794.021
## # ... with 755 more rows
…
